<?xml version="1.0" encoding="UTF-8" standalone="no"?>
<!-- Created with Inkscape (http://www.inkscape.org/) -->

<svg
   xmlns:dc="http://purl.org/dc/elements/1.1/"
   xmlns:cc="http://creativecommons.org/ns#"
   xmlns:rdf="http://www.w3.org/1999/02/22-rdf-syntax-ns#"
   xmlns:svg="http://www.w3.org/2000/svg"
   xmlns="http://www.w3.org/2000/svg"
   xmlns:sodipodi="http://sodipodi.sourceforge.net/DTD/sodipodi-0.dtd"
   xmlns:inkscape="http://www.inkscape.org/namespaces/inkscape"
   width="48"
   height="63"
   viewBox="0 0 48 63.000001"
   id="svg5391"
   version="1.1"
   inkscape:version="0.91 r13725"
   sodipodi:docname="arrow.svg">
  <defs
     id="defs5393" />
  <sodipodi:namedview
     id="base"
     pagecolor="#3a3a3a"
     bordercolor="#666666"
     borderopacity="1.0"
     inkscape:pageopacity="0.85098039"
     inkscape:pageshadow="2"
     inkscape:zoom="11.2"
     inkscape:cx="8.656882"
     inkscape:cy="44.84671"
     inkscape:document-units="px"
     inkscape:current-layer="g5374"
     showgrid="true"
     inkscape:window-width="1440"
     inkscape:window-height="837"
     inkscape:window-x="-8"
     inkscape:window-y="-8"
     inkscape:window-maximized="1"
     units="px"
     inkscape:snap-page="true"
     inkscape:snap-bbox="false">
    <inkscape:grid
       type="xygrid"
       id="grid4142" />
  </sodipodi:namedview>
  <metadata
     id="metadata5396">
    <rdf:RDF>
      <cc:Work
         rdf:about="">
        <dc:format>image/svg+xml</dc:format>
        <dc:type
           rdf:resource="http://purl.org/dc/dcmitype/StillImage" />
        <dc:title></dc:title>
      </cc:Work>
    </rdf:RDF>
  </metadata>
  <g
     inkscape:label="Layer 1"
     inkscape:groupmode="layer"
     id="layer1"
     transform="translate(0,-989.36216)">
    <g
       transform="matrix(0.57471264,0,0,0.55226151,-731.97331,263.08411)"
       id="g5374">
      <g
         id="g4137"
         transform="matrix(1,0,0,1.0117327,0.36856755,-14.800844)">
        <path
           fillRule="evenodd"
           d="m 1315.025,1343.72 c 0,0 41.76,41.75 41.76,41.75 0,0 -41.76,41.76 -41.76,41.76 0,0 -41.76,-41.76 -41.76,-41.76 0,0 41.76,-41.75 41.76,-41.75 z"
           id="path263"
           inkscape:connector-curvature="0"
           style="fill:#ffffff" />
        <path
           fillRule="evenodd"
           d="m 1314.775,1318.22 c 0,0 29.01,29 29.01,29 0,0 -29.01,29.01 -29.01,29.01 0,0 -29,-29.01 -29,-29.01 0,0 29,-29 29,-29 z"
           id="path265"
           inkscape:connector-curvature="0"
           style="fill:none;stroke:#ffffff;stroke-width:5.29408073px" />
        <path
           fillRule="evenodd"
           d="m 1298.905,1377.04 c 0,0 15.71,15.72 15.71,15.72 0,0 15.93,-15.92 15.93,-15.92 0,0 0,0 0,0 0.54,-0.52 1.27,-0.84 2.08,-0.84 1.66,0 3,1.34 3,3 0,0.81 -0.32,1.54 -0.84,2.08 0,0 0,0 0,0 0,0 -18,18 -18,18 0,0 0,0 0,0 -0.55,0.56 -1.31,0.92 -2.16,0.92 0,0 0,0 -0.01,0 0,0 0,0 0,0 -0.85,0 -1.62,-0.36 -2.16,-0.92 0,0 0,0 0,0 0,0 -18,-18 -18,-18 0,0 0,-0.01 0,-0.01 -0.51,-0.54 -0.83,-1.27 -0.83,-2.07 0,-1.66 1.34,-3 3,-3 0.91,0 1.72,0.4 2.28,1.04 z"
           id="path267"
           inkscape:connector-curvature="0"
           style="fill:#555555" />
      </g>
    </g>
  </g>
</svg>
